…
```r
recipe_spec <- recipe(value ~ date, training(splits)) %>%
  step_timeseries_signature(date) %>%
  step_rm(contains("am.pm"), contains("hour"), contains("minute"),
          contains("second"), contains("xts")) %>%
  step_fourier(date, period = 365, K = 5) %>%
  step_dummy(all_nominal())

recipe_spec %>% prep() %>% juice()
```

```
## # A tibble: 617 × 47
##    date       value date_index.num date_year date_year.iso date_half
##    <date>     <dbl>          <dbl>     <int>         <int>     <int>
##  1 2020-02-08   1       1581120000      2020          2020         1
##  2 2020-02-09   0.9     1581206400      2020          2020         1
##  3 2020-02-10   0.6     1581292800      2020          2020         1
##  4 2020-02-11   0.6     1581379200      2020          2020         1
##  5 2020-02-12   0.4     1581465600      2020          2020         1
##  6 2020-02-13   0.4     1581552000      2020          2020         1
##  7 2020-02-14   0.3     1581638400      2020          2020         1
##  8 2020-02-15   0.2     1581724800      2020          2020         1
##  9 2020-02-16   0.2     1581811200      2020          2020         1
## 10 2020-02-17   0.2     1581897600      2020          2020         1
## # … with 607 more rows, and 41 more variables: date_quarter <int>,
## #   date_month <int>, date_day <int>, date_wday <int>, date_mday <int>,
## #   date_qday <int>, date_yday <int>, date_mweek <int>, date_week <int>,
## #   date_week.iso <int>, date_week2 <int>, date_week3 <int>, date_week4 <int>,
## #   date_mday7 <int>, date_sin365_K1 <dbl>, date_cos365_K1 <dbl>,
## #   date_sin365_K2 <dbl>, date_cos365_K2 <dbl>, date_sin365_K3 <dbl>,
## #   date_cos365_K3 <dbl>, date_sin365_K4 <dbl>, date_cos365_K4 <dbl>, …
```
…
